%YAML 1.1
%TAG !u! tag:unity3d.com,2011:
--- !u!114 &11400000
MonoBehaviour:
  m_ObjectHideFlags: 0
  m_PrefabParentObject: {fileID: 0}
  m_PrefabInternal: {fileID: 0}
  m_GameObject: {fileID: 0}
  m_Enabled: 1
  m_EditorHideFlags: 0
  m_Script: {fileID: 337831424, guid: 844f815391db42d49455cbf1a7bfc434, type: 3}
  m_Name: ToggleComponent
  m_EditorClassIdentifier: 
  m_Id: 0
  m_NextId: 3
  m_Tracks:
  - {fileID: 114081272731329638}
  m_FixedDuration: 0
  m_EditorSettings:
    fps: 60
  m_UpdateMode: 0
  m_ParameterName: 
  m_DurationMode: 0
--- !u!114 &114039928653921710
MonoBehaviour:
  m_ObjectHideFlags: 1
  m_PrefabParentObject: {fileID: 0}
  m_PrefabInternal: {fileID: 0}
  m_GameObject: {fileID: 0}
  m_Enabled: 1
  m_EditorHideFlags: 0
  m_Script: {fileID: 11500000, guid: 30358d02e1195459a9132246af59f64d, type: 3}
  m_Name: (Clone)
  m_EditorClassIdentifier: 
--- !u!114 &114081272731329638
MonoBehaviour:
  m_ObjectHideFlags: 1
  m_PrefabParentObject: {fileID: 0}
  m_PrefabInternal: {fileID: 0}
  m_GameObject: {fileID: 0}
  m_Enabled: 1
  m_EditorHideFlags: 0
  m_Script: {fileID: 1778877366, guid: 6a10b2909283487f913b00d94cd3faf5, type: 3}
  m_Name: Playable Track
  m_EditorClassIdentifier: 
  m_Locked: 0
  m_Muted: 0
  m_Soloed: 0
  m_Height: 0
  m_InlineAnimationCurveHeight: 100
  m_CustomPlayableFullTypename: 
  m_AnimClip: {fileID: 0}
  m_Parent: {fileID: 11400000}
  m_Children: []
  m_Clips:
  - m_Start: 1
    m_ClipIn: 0
    m_Asset: {fileID: 114645299053657902}
    m_UnderlyingAsset: {fileID: 114645299053657902}
    m_Duration: 1
    m_ParentID: 0
    m_TimeScale: 1
    m_BlendCurve:
      serializedVersion: 2
      m_Curve: []
      m_PreInfinity: 2
      m_PostInfinity: 2
      m_RotationOrder: 4
    m_ParentTrack: {fileID: 114081272731329638}
    m_EaseInDuration: 0
    m_EaseOutDuration: 0
    m_BlendInDuration: -1
    m_BlendOutDuration: -1
    m_MixInCurve:
      serializedVersion: 2
      m_Curve:
      - serializedVersion: 2
        time: 0
        value: 0
        inSlope: 0
        outSlope: 0
        tangentMode: 0
      - serializedVersion: 2
        time: 1
        value: 1
        inSlope: 0
        outSlope: 0
        tangentMode: 0
      m_PreInfinity: 2
      m_PostInfinity: 2
      m_RotationOrder: 4
    m_MixOutCurve:
      serializedVersion: 2
      m_Curve:
      - serializedVersion: 2
        time: 0
        value: 1
        inSlope: 0
        outSlope: 0
        tangentMode: 0
      - serializedVersion: 2
        time: 1
        value: 0
        inSlope: 0
        outSlope: 0
        tangentMode: 0
      m_PreInfinity: 2
      m_PostInfinity: 2
      m_RotationOrder: 4
    m_BlendInCurveMode: 0
    m_BlendOutCurveMode: 0
    m_ExposedParameterNames: []
    m_AnimationCurves: {fileID: 0}
    m_ID: -1639828165
    m_Recordable: 0
    m_PostExtrapolationMode: 0
    m_PreExtrapolationMode: 0
    m_PostExtrapolationTime: 0
    m_PreExtrapolationTime: 0
    m_DisplayName: ToggleComponentAsset
  - m_Start: 3.0166666666656665
    m_ClipIn: 0
    m_Asset: {fileID: 114966774478108728}
    m_UnderlyingAsset: {fileID: 114645299053657902}
    m_Duration: 0.9833333333333334
    m_ParentID: 0
    m_TimeScale: 1
    m_BlendCurve:
      serializedVersion: 2
      m_Curve: []
      m_PreInfinity: 2
      m_PostInfinity: 2
      m_RotationOrder: 4
    m_ParentTrack: {fileID: 114081272731329638}
    m_EaseInDuration: 0
    m_EaseOutDuration: 0
    m_BlendInDuration: -1
    m_BlendOutDuration: -1
    m_MixInCurve:
      serializedVersion: 2
      m_Curve:
      - serializedVersion: 2
        time: 0
        value: 0
        inSlope: 0
        outSlope: 0
        tangentMode: 0
      - serializedVersion: 2
        time: 1
        value: 1
        inSlope: 0
        outSlope: 0
        tangentMode: 0
      m_PreInfinity: 2
      m_PostInfinity: 2
      m_RotationOrder: 4
    m_MixOutCurve:
      serializedVersion: 2
      m_Curve:
      - serializedVersion: 2
        time: 0
        value: 1
        inSlope: 0
        outSlope: 0
        tangentMode: 0
      - serializedVersion: 2
        time: 1
        value: 0
        inSlope: 0
        outSlope: 0
        tangentMode: 0
      m_PreInfinity: 2
      m_PostInfinity: 2
      m_RotationOrder: 4
    m_BlendInCurveMode: 0
    m_BlendOutCurveMode: 0
    m_ExposedParameterNames: []
    m_AnimationCurves: {fileID: 0}
    m_ID: 431904832
    m_Recordable: 0
    m_PostExtrapolationMode: 0
    m_PreExtrapolationMode: 0
    m_PostExtrapolationTime: 0
    m_PreExtrapolationTime: 0
    m_DisplayName: ToggleComponentAsset
--- !u!114 &114645299053657902
MonoBehaviour:
  m_ObjectHideFlags: 1
  m_PrefabParentObject: {fileID: 0}
  m_PrefabInternal: {fileID: 0}
  m_GameObject: {fileID: 0}
  m_Enabled: 1
  m_EditorHideFlags: 0
  m_Script: {fileID: 11500000, guid: 270753c4d97bc4149ad43d41ab8decd1, type: 3}
  m_Name: ToggleComponentAsset
  m_EditorClassIdentifier: 
  Component:
    exposedName: 497545ece4a2a804088c91be78edea98
    defaultValue: {fileID: 0}
  EnabledOnStart: 0
  EnabledOnEnd: 1
--- !u!114 &114845531545120330
MonoBehaviour:
  m_ObjectHideFlags: 1
  m_PrefabParentObject: {fileID: 0}
  m_PrefabInternal: {fileID: 0}
  m_GameObject: {fileID: 0}
  m_Enabled: 1
  m_EditorHideFlags: 0
  m_Script: {fileID: 11500000, guid: 30358d02e1195459a9132246af59f64d, type: 3}
  m_Name: (Clone)(Clone)
  m_EditorClassIdentifier: 
--- !u!114 &114941248596885052
MonoBehaviour:
  m_ObjectHideFlags: 1
  m_PrefabParentObject: {fileID: 0}
  m_PrefabInternal: {fileID: 0}
  m_GameObject: {fileID: 0}
  m_Enabled: 1
  m_EditorHideFlags: 0
  m_Script: {fileID: 11500000, guid: 30358d02e1195459a9132246af59f64d, type: 3}
  m_Name: (Clone)
  m_EditorClassIdentifier: 
--- !u!114 &114966774478108728
MonoBehaviour:
  m_ObjectHideFlags: 1
  m_PrefabParentObject: {fileID: 0}
  m_PrefabInternal: {fileID: 0}
  m_GameObject: {fileID: 0}
  m_Enabled: 1
  m_EditorHideFlags: 0
  m_Script: {fileID: 11500000, guid: 270753c4d97bc4149ad43d41ab8decd1, type: 3}
  m_Name: ToggleComponentAsset
  m_EditorClassIdentifier: 
  Component:
    exposedName: 9dde1d14bd7f24144bdac3463141fb98
    defaultValue: {fileID: 0}
  EnabledOnStart: 0
  EnabledOnEnd: 1
